diff_num_hist|||-10.5 10.5 -1 -1 21
unmatched_number_hist|||-0.5 5.5 -1 -1 6
diff_cell_per_cluster||_1|0 1000 -1 -1 50
delta_eta_hist|||-0.25 0.25 -1 -1 100
time_invratio_histogram||_2|0 10 -1 -1 50
time_invratio_histogram||_1|0 15 -1 -1 75
